-- Merging decision tree log ---
manifest
ADDED from C:\Users\Black Cat\AndroidStudioProjects\MyAndroid\_Template\app\src\main\AndroidManifest.xml:2:1-20:12
MERGED from [com.android.support.constraint:constraint-layout:1.0.2] C:\Users\Black Cat\.gradle\caches\transforms-1\files-1.1\constraint-layout-1.0.2.aar\71fb9fd3417d17491507e45ed6a3ef26\AndroidManifest.xml:2:1-11:12
	package
		ADDED from C:\Users\Black Cat\AndroidStudioProjects\MyAndroid\_Template\app\src\main\AndroidManifest.xml:3:5-39
	xmlns:android
		ADDED from C:\Users\Black Cat\AndroidStudioProjects\MyAndroid\_Template\app\src\main\AndroidManifest.xml:2:11-69
uses-sdk
ADDED from C:\Users\Black Cat\AndroidStudioProjects\MyAndroid\_Template\app\src\main\AndroidManifest.xml:5:5-7:34
MERGED from [com.android.support.constraint:constraint-layout:1.0.2] C:\Users\Black Cat\.gradle\caches\transforms-1\files-1.1\constraint-layout-1.0.2.aar\71fb9fd3417d17491507e45ed6a3ef26\AndroidManifest.xml:5:5-7:41
MERGED from [com.android.support.constraint:constraint-layout:1.0.2] C:\Users\Black Cat\.gradle\caches\transforms-1\files-1.1\constraint-layout-1.0.2.aar\71fb9fd3417d17491507e45ed6a3ef26\AndroidManifest.xml:5:5-7:41
	android:targetSdkVersion
		ADDED from C:\Users\Black Cat\AndroidStudioProjects\MyAndroid\_Template\app\src\main\AndroidManifest.xml:6:5-34
	android:minSdkVersion
		ADDED from C:\Users\Black Cat\AndroidStudioProjects\MyAndroid\_Template\app\src\main\AndroidManifest.xml:7:5-31
application
ADDED from C:\Users\Black Cat\AndroidStudioProjects\MyAndroid\_Template\app\src\main\AndroidManifest.xml:8:5-19:19
MERGED from [com.android.support.constraint:constraint-layout:1.0.2] C:\Users\Black Cat\.gradle\caches\transforms-1\files-1.1\constraint-layout-1.0.2.aar\71fb9fd3417d17491507e45ed6a3ef26\AndroidManifest.xml:9:5-20
MERGED from [com.android.support.constraint:constraint-layout:1.0.2] C:\Users\Black Cat\.gradle\caches\transforms-1\files-1.1\constraint-layout-1.0.2.aar\71fb9fd3417d17491507e45ed6a3ef26\AndroidManifest.xml:9:5-20
	android:label
		ADDED from C:\Users\Black Cat\AndroidStudioProjects\MyAndroid\_Template\app\src\main\AndroidManifest.xml:10:9-41
	android:roundIcon
		ADDED from C:\Users\Black Cat\AndroidStudioProjects\MyAndroid\_Template\app\src\main\AndroidManifest.xml:11:9-49
	android:icon
		ADDED from C:\Users\Black Cat\AndroidStudioProjects\MyAndroid\_Template\app\src\main\AndroidManifest.xml:9:9-38
activity#com.astromedicomp.window.MainActivity
ADDED from C:\Users\Black Cat\AndroidStudioProjects\MyAndroid\_Template\app\src\main\AndroidManifest.xml:12:9-18:20
	android:name
		ADDED from C:\Users\Black Cat\AndroidStudioProjects\MyAndroid\_Template\app\src\main\AndroidManifest.xml:12:19-47
intent-filter#android.intent.action.MAIN+android.intent.category.LAUNCHER
ADDED from C:\Users\Black Cat\AndroidStudioProjects\MyAndroid\_Template\app\src\main\AndroidManifest.xml:13:13-17:29
action#android.intent.action.MAIN
ADDED from C:\Users\Black Cat\AndroidStudioProjects\MyAndroid\_Template\app\src\main\AndroidManifest.xml:14:17-69
	android:name
		ADDED from C:\Users\Black Cat\AndroidStudioProjects\MyAndroid\_Template\app\src\main\AndroidManifest.xml:14:25-66
category#android.intent.category.LAUNCHER
ADDED from C:\Users\Black Cat\AndroidStudioProjects\MyAndroid\_Template\app\src\main\AndroidManifest.xml:16:17-77
	android:name
		ADDED from C:\Users\Black Cat\AndroidStudioProjects\MyAndroid\_Template\app\src\main\AndroidManifest.xml:16:27-74
